{
  "name": "ticks",
  "description": "environment for ticks stack nodes",
  "cookbook_versions": {
    "ticks_yumrepo": "= 1.0.0",
    "tickstack": "= 1.0.0"
  },
  "json_class": "Chef::Environment",
  "chef_type": "environment",
  "default_attributes": {
    "ec2": {
      "image": {
        "pem": "app1-1.0-SNAPSHOT-52"
      }
    }
  },
  "override_attributes": {
  }
}
